newmtl glass
Ka 0.3000 0.3000 0.4000
Kd 0.3000 0.300 0.4000
Ks 0.3000 0.3000 0.3000
illum 2
Ns 60.0000

newmtl gray
Ka 0.35000 0.3500 0.4000
Kd 0.350000 0.3500 0.4000
Ks 0.3000 0.3000 0.3000
illum 2
Ns 300.0000

newmtl red
Ka 0.4000 0.4000 0.4000
Kd 0.3000 0.0343 0.0343
Ks 0.3000 0.3000 0.3000
illum 2
Ns 60.0000

newmtl blue
Ka 0.4000 0.4000 0.4000
Kd 0.0343 0.1861 0.3000
Ks 0.3000 0.3000 0.3000
illum 2
Ns 60.0000

newmtl darkbrown
Ka 0.1500 0.1500 0.1500
Kd 0.1500 0.1500 0.1500
Ks 0.3000 0.3000 0.3000
illum 2
Ns 60.0000

newmtl white
Ka 0.5 0.5 0.5
Kd 0.5 0.5 0.5

newmtl brown
Ka 0.22 0.17 0.17
Kd 0.22 0.17 0.17


newmtl deck
Ka 0.2 0.2 0.2
Kd 0.45 0.4 0.35
Ks 0.1000 0.0500 0.0500
illum 2
Ns 60.0000


